{
	"id": "nodebb-plugin-sso-oidc",
	"name": "NodeBB OpenID Connect SSO",
	"description": "NodeBB Plugin that allows users to login/register via their OpenID Connect account.",
	"url": "https://github.com/Alexkin2609/nodebb-plugin-sso-oidc#readme",
	"library": "./library.js",
	"templates": "templates",
	"hooks": [
        { "hook": "static:app.load", "method": "init" },
		{ "hook": "filter:auth.init", "method": "getStrategy" },
		{ "hook": "filter:admin.header.build", "method": "addMenuItem" },
		{ "hook": "filter:config.get", "method": "enableNestedReplies" }
	],
	"acpScripts": [
		"static/lib/admin.js"
	],
	"scripts": [
		"static/lib/main.js"
	],
	"less": [
		"static/less/style.less"
	],
	"staticDirs": {
		"images": "static/images"
	}
}